module TControl

go 1.20

require (
	github.com/google/uuid v1.3.0 // indirect
	github.com/json-iterator/go v1.1.12 // indirect
	github.com/modern-go/concurrent v0.0.0-20180228061459-e0a39a4cb421 // indirect
	github.com/modern-go/reflect2 v1.0.2 // indirect
	github.com/op/go-logging v0.0.0-20160315200505-970db520ece7 // indirect
)
